…
The data was turned into a tibble for easier use.

``` r
bib <- RefManageR::as.BibEntry(bib) %>%
    as.data.frame() %>% 
    as_tibble()
```

The data was now in a more managable format for data analysis.

    #> # A tibble: 780 x 28
    #>    bibtype abstract author doi   file  issn  journal keywords month number
    #>    <chr>   <chr>    <chr>  <chr> <chr> <chr> <chr>   <chr>    <chr> <chr> 
    #>  1 Article Senesce… Junro… 10.3… ":Us… 1791… Molecu… Dual ro… feb   2     
    #>  2 Article BACKGRO… Diego… 10.1… :Use… 1471… BMC ca… Colorec… aug   1     
    #>  3 Article The acq… Annet… 10.1… :Use… 1937… Scienc… <NA>     mar   166   
    #>  4 Article Kinase … James… 10.1… :Use… 1097… Cell    <NA>     apr   2     
    #>  5 Article The RAS… Susan… 10.1… :Use… 1538… Cancer… <NA>     may   10    
    #>  6 Article Activat… Chris… 10.1… :Use… 1465… Nature… <NA>     may   5     
    #>  7 Article "Lung c… Guill… 10.1… :Use… 1932… PloS o… <NA>     <NA>  1     
    #>  8 Article Mutatio… Alyss… 10.1… :Use… 1097… Molecu… proj:co… apr   1     
    #>  9 Article "BACKGR… Chris… 10.1… :Use… 1474… The La… <NA>     oct   13    
    #> 10 Article <NA>     Asher… 10.1… :Use… 1474… Nature… <NA>     oct   10    
    #> # … with 770 more rows, and 18 more variables: pages <chr>, pmid <chr>,
    #> #   title <chr>, url <chr>, volume <chr>, year <chr>, annote <chr>,
    #> #   isbn <chr>, `mendeley-tags` <chr>, publisher <chr>,
    #> #   archiveprefix <chr>, arxivid <chr>, eprint <chr>, booktitle <chr>,
    #> #   address <chr>, editor <chr>, primaryclass <chr>, urldate <chr>
…
pubtatoes <- purrr::map(bib$pmid, pubmed.mineR::pubtator_function) %>% 
    purrr::map(pubtator_to_tibble) %>% 
    bind_rows()
```

    #> # A tibble: 3,713 x 3
    #>    PMID     field     val              
    #>    <chr>    <chr>     <chr>            
    #>  1 30535440 Genes     ERK1/2           
    #>  2 30535440 Diseases  cancer           
    #>  3 30103709 Genes     AKT              
    #>  4 30103709 Genes     MEK1             
    #>  5 30103709 Genes     MEK              
    #>  6 30103709 Genes     ERK              
    #>  7 30103709 Diseases  colorectal cancer
    #>  8 30103709 Diseases  CRC              
    #>  9 30103709 Diseases  tumour           
    #> 10 30103709 Chemicals irinotecan       
    #> # … with 3,703 more rows
…
